<?xml version="1.0" encoding="UTF-8" standalone="no"?>
<!-- Uploaded to: SVG Repo, www.svgrepo.com, Generator: SVG Repo Mixer Tools -->

<svg
   xmlns:dc="http://purl.org/dc/elements/1.1/"
   xmlns:cc="http://creativecommons.org/ns#"
   xmlns:rdf="http://www.w3.org/1999/02/22-rdf-syntax-ns#"
   xmlns:svg="http://www.w3.org/2000/svg"
   xmlns="http://www.w3.org/2000/svg"
   xmlns:sodipodi="http://sodipodi.sourceforge.net/DTD/sodipodi-0.dtd"
   xmlns:inkscape="http://www.inkscape.org/namespaces/inkscape"
   height="800px"
   width="800px"
   version="1.1"
   id="Layer_1"
   viewBox="0 0 497.786 497.786"
   xml:space="preserve"
   sodipodi:docname="masquer.svg"
   inkscape:version="0.92.5 (2060ec1f9f, 2020-04-08)"><metadata
   id="metadata21"><rdf:RDF><cc:Work
       rdf:about=""><dc:format>image/svg+xml</dc:format><dc:type
         rdf:resource="http://purl.org/dc/dcmitype/StillImage" /><dc:title></dc:title></cc:Work></rdf:RDF></metadata><defs
   id="defs19" /><sodipodi:namedview
   pagecolor="#ffffff"
   bordercolor="#666666"
   borderopacity="1"
   objecttolerance="10"
   gridtolerance="10"
   guidetolerance="10"
   inkscape:pageopacity="0"
   inkscape:pageshadow="2"
   inkscape:window-width="1398"
   inkscape:window-height="851"
   id="namedview17"
   showgrid="false"
   inkscape:zoom="0.417193"
   inkscape:cx="268.32968"
   inkscape:cy="320.15166"
   inkscape:window-x="42"
   inkscape:window-y="25"
   inkscape:window-maximized="1"
   inkscape:current-layer="Layer_1" />
<circle
   style="opacity:0.81000001;vector-effect:none;fill:#00fff4;fill-opacity:1;stroke:#000000;stroke-width:4.97856951;stroke-linecap:round;stroke-linejoin:round;stroke-miterlimit:4;stroke-dasharray:none;stroke-dashoffset:0;stroke-opacity:1"
   id="path838"
   cx="243.11024"
   cy="132.37488"
   r="124.33238" /><g
   aria-label="5"
   style="font-style:normal;font-variant:normal;font-weight:normal;font-stretch:normal;font-size:237.82626343px;line-height:1.25;font-family:Marianne;-inkscape-font-specification:Marianne;letter-spacing:0px;word-spacing:0px;fill:#88d7d3;fill-opacity:1;stroke:none;stroke-width:8.1077137"
   id="text833"
   transform="matrix(1.0124292,0,0,1.0124292,91.647806,-36.363662)"><path
     d="m 100.5969,169.79337 h 45.66264 c 23.30698,0 36.86307,12.84262 36.86307,32.10655 0,20.21523 -15.4587,32.34437 -36.38742,32.34437 -18.07479,0 -31.86871,-7.61044 -42.09525,-26.16089 l -18.788272,11.65349 c 13.318271,22.11784 32.582202,33.77133 61.121352,33.77133 33.29568,0 58.02961,-20.45306 58.02961,-51.13265 0,-30.67959 -19.73958,-52.08395 -57.79178,-52.08395 h -24.02046 l 2.85392,-48.75438 h 71.11005 V 82.273309 h -91.56311 z"
     style="fill:#88d7d3;fill-opacity:1;stroke-width:8.1077137"
     id="path835"
     inkscape:connector-curvature="0" /></g><g
   id="g14"
   transform="translate(0,92.09041)">
	<path
   style="fill:#bddbff"
   d="m 97.059,248.893 c 0,-82.62 65.764,-149.875 147.796,-152.283 -48.351,1.12 -96.1,15.5 -137.582,39.954 -41.985,24.75 -77.077,60.13 -101.48,102.314 L 0,248.893 5.793,258.908 c 24.403,42.185 59.495,77.564 101.48,102.314 42.783,25.221 91.715,39.719 141.616,40.021 -83.898,-0.282 -151.83,-68.381 -151.83,-152.35 z"
   id="path2"
   inkscape:connector-curvature="0" />
	<path
   style="fill:#9bc9ff"
   d="M 491.992,238.878 C 467.589,196.693 432.497,161.314 390.512,136.564 350.331,112.877 304.27,98.644 257.478,96.756 c 80.389,4.195 144.281,70.704 144.281,152.137 0,82.041 -64.852,148.924 -146.085,152.212 47.545,-1.51 93.994,-15.805 134.839,-39.883 41.985,-24.75 77.077,-60.13 101.48,-102.314 l 5.793,-10.015 z"
   id="path4"
   inkscape:connector-curvature="0" />
	<path
   style="fill:#9bc9ff"
   d="m 248.377,96.543 c 0.069,10e-4 0.136,0.004 0.204,0.005 0.021,0 0.041,-0.001 0.062,-0.001 -0.089,-10e-4 -0.178,-0.003 -0.266,-0.004 z"
   id="path6"
   inkscape:connector-curvature="0" />
	<path
   style="fill:#005ece"
   d="m 249.409,96.543 h -0.52 v 85.523 c 0.175,-0.001 0.346,-0.013 0.52,-0.013 36.915,0 66.84,29.925 66.84,66.84 0,36.915 -29.925,66.84 -66.84,66.84 -0.174,0 -0.344,-0.012 -0.518,-0.013 -0.003,0 -0.003,85.523 -0.003,85.523 h 0.52 c 84.14,0 152.35,-68.21 152.35,-152.35 0,-84.14 -68.209,-152.35 -152.349,-152.35 z"
   id="path8"
   inkscape:connector-curvature="0" />
	<path
   style="fill:#2488ff"
   d="m 182.57,248.893 c 0,-36.74 29.646,-66.546 66.321,-66.827 L 248.89,96.543 c -83.9,0.28 -151.83,68.38 -151.83,152.35 0,83.97 67.934,152.07 151.834,152.35 L 248.893,315.72 C 212.217,315.44 182.57,285.634 182.57,248.893 Z"
   id="path10"
   inkscape:connector-curvature="0" />
	<path
   style="fill:#1d1d1f"
   d="m 182.57,248.893 c 0,36.741 29.647,66.547 66.322,66.827 0.173,10e-4 0.344,0.013 0.518,0.013 36.915,0 66.84,-29.925 66.84,-66.84 0,-36.915 -29.925,-66.84 -66.84,-66.84 -0.174,0 -0.345,0.012 -0.519,0.013 -36.675,0.281 -66.321,30.086 -66.321,66.827 z"
   id="path12"
   inkscape:connector-curvature="0" />
</g>
<path
   style="fill:#ff0000;stroke:#ff0000;stroke-width:88.35701752;stroke-linecap:butt;stroke-linejoin:miter;stroke-miterlimit:4;stroke-dasharray:none;stroke-opacity:1"
   d="M 32.622718,456.91462 C 466.36781,178.21116 466.36781,178.21116 466.36781,178.21116"
   id="path867"
   inkscape:connector-curvature="0" /></svg>